<deployment-project plugin="plugin.ezdeploy" plugin-version="1.0">
  <configuration build-checksum="2443088771" file="C:\Users\aagodlovedc\Desktop\GOSE\xls2GOSE.prj" location="C:\Users\aagodlovedc\Desktop\GOSE" name="xls2GOSE" preferred-package-location="C:\Users\aagodlovedc\Desktop\GOSE\xls2GOSE\for_redistribution" preferred-package-type="package.type.exe" target="target.ezdeploy.standalone" target-name="Application Compiler">
    <param.appname>xls2GOSE</param.appname>
    <param.icon>${PROJECT_ROOT}\xls2GOSE_resources\icon.ico</param.icon>
    <param.icons>
      <file>${PROJECT_ROOT}\xls2GOSE_resources\icon_48.png</file>
      <file>${PROJECT_ROOT}\xls2GOSE_resources\icon_32.png</file>
      <file>${PROJECT_ROOT}\xls2GOSE_resources\icon_24.png</file>
      <file>${PROJECT_ROOT}\xls2GOSE_resources\icon_16.png</file>
    </param.icons>
    <param.version>1.0</param.version>
    <param.authnamewatermark>David Godove</param.authnamewatermark>
    <param.email>dgodlove@sapient.com</param.email>
    <param.company>Sapient Consulting</param.company>
    <param.summary>Code GOSE data in an .xlsx file.</param.summary>
    <param.description>Read a spreadsheet containing GOSE scoring data, code it according to
the given algorithm, and write it back out to a new spreadsheet.
Assumes Windows and requires that Microsoft Excel be installed on the 
system.</param.description>
    <param.screenshot>C:\Users\aagodlovedc\Pictures\splash1.png</param.screenshot>
    <param.guid />
    <param.installpath.string>\Sapient Consulting\xls2GOSE\</param.installpath.string>
    <param.installpath.combo>option.installpath.programfiles</param.installpath.combo>
    <param.logo>C:\Users\aagodlovedc\Pictures\sgm-logo-small.png</param.logo>
    <param.install.notes />
    <param.target.install.notes />
    <param.intermediate>${PROJECT_ROOT}\xls2GOSE\for_testing</param.intermediate>
    <param.files.only>${PROJECT_ROOT}\xls2GOSE\for_redistribution_files_only</param.files.only>
    <param.output>${PROJECT_ROOT}\xls2GOSE\for_redistribution</param.output>
    <param.logdir>${PROJECT_ROOT}\xls2GOSE</param.logdir>
    <param.enable.clean.build>false</param.enable.clean.build>
    <param.user.defined.mcr.options />
    <param.embed.ctf>true</param.embed.ctf>
    <param.target.type>subtarget.standalone</param.target.type>
    <param.support.packages />
    <param.web.mcr>false</param.web.mcr>
    <param.package.mcr>true</param.package.mcr>
    <param.no.mcr>false</param.no.mcr>
    <param.web.mcr.name>MyAppInstaller_web</param.web.mcr.name>
    <param.package.mcr.name>MyAppInstaller_mcr</param.package.mcr.name>
    <param.no.mcr.name>MyAppInstaller_app</param.no.mcr.name>
    <param.windows.command.prompt>true</param.windows.command.prompt>
    <param.create.log>false</param.create.log>
    <param.log.file />
    <unset>
      <param.version />
      <param.guid />
      <param.installpath.string />
      <param.installpath.combo />
      <param.target.install.notes />
      <param.intermediate />
      <param.files.only />
      <param.output />
      <param.logdir />
      <param.enable.clean.build />
      <param.user.defined.mcr.options />
      <param.embed.ctf />
      <param.target.type />
      <param.support.packages />
      <param.no.mcr />
      <param.web.mcr.name />
      <param.package.mcr.name />
      <param.no.mcr.name />
      <param.windows.command.prompt />
      <param.create.log />
      <param.log.file />
    </unset>
    <fileset.main>
      <file>${PROJECT_ROOT}\xls2GOSE.m</file>
    </fileset.main>
    <fileset.resources />
    <fileset.package />
    <fileset.depfun />
    <build-deliverables>
      <file location="${PROJECT_ROOT}\xls2GOSE\for_testing" name="splash.png" optional="false">C:\Users\aagodlovedc\Desktop\GOSE\xls2GOSE\for_testing\splash.png</file>
      <file location="${PROJECT_ROOT}\xls2GOSE\for_testing" name="readme.txt" optional="true">C:\Users\aagodlovedc\Desktop\GOSE\xls2GOSE\for_testing\readme.txt</file>
      <file location="${PROJECT_ROOT}\xls2GOSE\for_testing" name="xls2GOSE.exe" optional="false">C:\Users\aagodlovedc\Desktop\GOSE\xls2GOSE\for_testing\xls2GOSE.exe</file>
    </build-deliverables>
    <workflow />
    <matlab>
      <root>S:\apps\Matlab64-9.0</root>
      <toolboxes />
    </matlab>
    <platform>
      <unix>false</unix>
      <mac>false</mac>
      <windows>true</windows>
      <win2k>false</win2k>
      <winxp>false</winxp>
      <vista>false</vista>
      <linux>false</linux>
      <solaris>false</solaris>
      <osver>6.1</osver>
      <os32>false</os32>
      <os64>true</os64>
      <arch>win64</arch>
      <matlab>true</matlab>
    </platform>
  </configuration>
</deployment-project>